0.00025	0.000E+00
0.00075	0.000E+00
0.00125	0.000E+00
0.00175	0.000E+00
0.00225	0.000E+00
0.00275	0.000E+00
0.00325	0.000E+00
0.00375	0.000E+00
0.00425	0.000E+00
0.00475	0.000E+00
0.00525	0.000E+00
0.00575	0.000E+00
0.00625	0.000E+00
0.00675	0.000E+00
0.00725	0.000E+00
0.00775	0.000E+00
0.00825	0.000E+00
0.00875	0.000E+00
0.00925	0.000E+00
0.00975	0.000E+00
0.01025	0.000E+00
0.01075	0.000E+00
0.01125	0.000E+00
0.01175	0.000E+00
0.01225	0.000E+00
0.01275	0.000E+00
0.01325	0.000E+00
0.01375	0.000E+00
0.01425	0.000E+00
0.01475	0.000E+00
0.01525	0.000E+00
0.01575	0.000E+00
0.01625	1.423E-04
0.01675	2.157E-04
0.01725	3.102E-04
0.01775	4.324E-04
0.01825	5.840E-04
0.01875	7.644E-04
0.01925	9.784E-04
0.01975	1.222E-03
0.02025	1.491E-03
0.02075	1.803E-03
0.02125	2.129E-03
0.02175	2.490E-03
0.02225	2.863E-03
0.02275	3.263E-03
0.02325	3.658E-03
0.02375	4.093E-03
0.02425	4.504E-03
0.02475	4.912E-03
0.02525	5.347E-03
0.02575	5.769E-03
0.02625	6.168E-03
0.02675	6.582E-03
0.02725	6.965E-03
0.02775	7.360E-03
0.02825	7.710E-03
0.02875	8.067E-03
0.02925	8.368E-03
0.02975	8.671E-03
0.03025	8.975E-03
0.03075	9.213E-03
0.03125	9.476E-03
0.03175	9.694E-03
0.03225	9.903E-03
0.03275	1.009E-02
0.03325	1.025E-02
0.03375	1.040E-02
0.03425	1.053E-02
0.03475	1.063E-02
0.03525	1.073E-02
0.03575	1.081E-02
0.03625	1.087E-02
0.03675	1.092E-02
0.03725	1.096E-02
0.03775	1.099E-02
0.03825	1.100E-02
0.03875	1.100E-02
0.03925	1.099E-02
0.03975	1.098E-02
0.04025	1.095E-02
0.04075	1.091E-02
0.04125	1.086E-02
0.04175	1.081E-02
0.04225	1.076E-02
0.04275	1.069E-02
0.04325	1.063E-02
0.04375	1.055E-02
0.04425	1.048E-02
0.04475	1.039E-02
0.04525	1.031E-02
0.04575	1.022E-02
0.04625	1.012E-02
0.04675	1.003E-02
0.04725	9.933E-03
0.04775	9.828E-03
0.04825	9.732E-03
0.04875	9.628E-03
0.04925	9.516E-03
0.04975	9.412E-03
0.05025	9.302E-03
0.05075	9.193E-03
0.05125	9.084E-03
0.05175	8.970E-03
0.05225	8.862E-03
0.05275	8.749E-03
0.05325	8.637E-03
0.05375	8.526E-03
0.05425	8.409E-03
0.05475	8.300E-03
0.05525	8.185E-03
0.05575	8.072E-03
0.05625	7.959E-03
0.05675	7.847E-03
0.05725	7.737E-03
0.05775	2.568E-02
0.05825	7.513E-03
0.05875	7.405E-03
0.05925	3.920E-02
0.05975	7.181E-03
0.06025	7.071E-03
0.06075	6.962E-03
0.06125	6.854E-03
0.06175	6.746E-03
0.06225	6.640E-03
0.06275	6.530E-03
0.06325	6.425E-03
0.06375	6.321E-03
0.06425	6.214E-03
0.06475	6.107E-03
0.06525	6.006E-03
0.06575	5.901E-03
0.06625	5.797E-03
0.06675	1.673E-02
0.06725	5.592E-03
0.06775	5.491E-03
0.06825	5.390E-03
0.06875	8.223E-03
0.06925	5.055E-03
0.06975	4.296E-03
0.07025	4.236E-03
0.07075	4.171E-03
0.07125	4.110E-03
0.07175	4.048E-03
0.07225	3.982E-03
0.07275	3.919E-03
0.07325	3.852E-03
0.07375	3.787E-03
0.07425	3.719E-03
0.07475	3.654E-03
0.07525	3.585E-03
0.07575	3.516E-03
0.07625	3.449E-03
0.07675	3.379E-03
0.07725	3.308E-03
0.07775	3.240E-03
0.07825	3.169E-03
0.07875	3.098E-03
0.07925	3.026E-03
0.07975	2.954E-03
0.08025	2.882E-03
0.08075	2.809E-03
0.08125	2.736E-03
0.08175	2.665E-03
0.08225	2.592E-03
0.08275	2.519E-03
0.08325	2.445E-03
0.08375	2.370E-03
0.08425	2.296E-03
0.08475	2.222E-03
0.08525	2.148E-03
0.08575	2.073E-03
0.08625	1.999E-03
0.08675	1.925E-03
0.08725	1.850E-03
0.08775	1.776E-03
0.08825	1.700E-03
0.08875	1.625E-03
0.08925	1.550E-03
0.08975	1.476E-03
0.09025	1.400E-03
0.09075	1.326E-03
0.09125	1.251E-03
0.09175	1.177E-03
0.09225	1.101E-03
0.09275	1.027E-03
0.09325	9.529E-04
0.09375	8.781E-04
0.09425	8.041E-04
0.09475	7.302E-04
0.09525	6.559E-04
0.09575	5.823E-04
0.09625	5.089E-04
0.09675	4.353E-04
0.09725	3.623E-04
0.09775	2.892E-04
0.09825	2.166E-04
0.09875	1.441E-04
0.09925	7.193E-05
0.09975	5.990E-06
0.10000	0.000E+00
